Skewness.Layer.1;Ratio.Layer.3;Contrast.to.neighbor.pixels.Layer.1..3.;Circular.Mean.Layer.1..R1..User..3..R2..Same...R1...border.;HSI.Transformation.Hue.R.Layer.1.G.Layer.2.B.Layer.3.;Area.of.sub.objects..mean..1...Pxl.;Asymmetry.of.sub.objects..mean..1.;Direction.of.sub.objects..stddev..1.;GLCM.Mean..quick.8.11..Layer.1..all.dir..;Area.of.sub.objects.Nucleus..1...Pxl.;Rel..area.of.sub.objects.Nucleus..1.
0.140945;0.511945;-689.403700;114.875000;0.785106;421.666667;0.704490;33.833643;127.135387;136.000000;0.053755
0.502491;0.538381;-1196.276687;75.125000;0.767630;189.450000;0.537537;36.451201;98.430668;1947.000000;0.513856
0.552590;0.515212;-731.617421;154.625000;0.776636;280.384615;0.635245;26.632900;119.336739;1139.000000;0.312483
-0.201071;0.516206;-579.130438;98.812500;0.781464;375.428571;0.526340;32.967683;127.952875;1322.000000;0.503044
-0.273187;0.430677;-139.444615;216.125000;0.824344;253.131579;0.770556;35.690861;179.602240;1779.000000;0.184946
-0.932968;0.388858;110.936266;197.812500;0.819460;523.600000;0.675805;16.426808;206.999735;452.000000;0.086325
-0.772630;0.426964;-93.511982;192.187500;0.845499;309.714286;0.786259;23.707639;189.799346;564.000000;0.086716
-0.662109;0.415664;-72.956405;190.375000;0.846636;252.540541;0.713094;30.748562;184.788322;1271.000000;0.136023
-2.119328;0.367141;69.137194;212.125000;0.826050;982.400000;0.624053;31.743531;219.793100;0.000000;0.000000
-0.915721;0.391012;-47.179240;212.812500;0.816851;440.733333;0.709813;36.008667;198.588498;1310.000000;0.099077
-0.495584;0.400886;177.684161;196.000000;0.820985;1374.500000;0.748898;20.402128;213.192213;0.000000;0.000000
-1.046934;0.372146;169.365902;248.937500;0.835169;2882.000000;0.728327;0.000000;231.069890;0.000000;0.000000
-0.112578;0.421287;62.303937;197.312500;0.847170;465.666667;0.541422;30.148676;203.249964;0.000000;0.000000
-0.772212;0.404762;89.817398;193.312500;0.835657;421.687500;0.721763;44.349535;207.200032;234.000000;0.034682
-1.573978;0.402672;12.811748;180.062500;0.839355;481.860465;0.724994;38.854300;205.344441;803.000000;0.038755
-1.073464;0.404792;-67.627615;188.187500;0.846049;322.769231;0.753550;31.031794;200.320924;793.000000;0.094495
-0.901108;0.412240;-141.068683;187.562500;0.856244;424.850000;0.697234;37.423891;197.995645;1219.000000;0.143462
-1.144972;0.369268;86.786646;226.500000;0.817847;1320.166667;0.571385;32.824430;221.972624;0.000000;0.000000
-0.926528;0.414978;-34.817561;237.187500;0.835029;496.333333;0.745608;44.083342;199.987290;667.000000;0.063993
-1.652058;0.398970;18.928971;205.437500;0.852046;2550.857143;0.637778;38.409604;217.891570;160.000000;0.008961
-1.236632;0.389483;3.832048;219.375000;0.844227;652.545455;0.762629;39.157241;212.841074;201.000000;0.028002
-0.976597;0.383852;94.971314;205.187500;0.819457;573.400000;0.689411;26.101937;208.007534;506.000000;0.088246
-0.945283;0.405557;-7.624734;229.500000;0.837961;520.439024;0.699310;40.260049;204.538809;1822.000000;0.085388
-1.475611;0.397603;-15.710179;212.062500;0.843515;855.318182;0.695093;40.891123;211.857337;916.000000;0.048679
-1.220563;0.403315;-23.585864;178.500000;0.854592;733.058824;0.816789;33.901388;208.541583;0.000000;0.000000
-1.101917;0.382975;83.781186;211.125000;0.828062;2551.250000;0.585267;13.558744;218.576042;0.000000;0.000000
-0.961812;0.402280;71.321311;239.500000;0.839808;776.214286;0.650146;36.292805;207.984029;522.000000;0.048035
-1.097361;0.381544;101.314370;168.125000;0.834309;1215.714286;0.627624;30.729460;219.867635;258.000000;0.030317
-0.822354;0.424623;25.051143;225.375000;0.858983;779.666667;0.833674;12.021185;210.960331;0.000000;0.000000
-1.065029;0.387721;44.139886;222.437500;0.849133;1690.400000;0.799150;20.046037;220.510735;190.000000;0.022480
-1.005323;0.407175;6.279488;220.062500;0.853509;1030.666667;0.785469;23.533053;210.512428;0.000000;0.000000
-1.031881;0.419219;-103.545013;212.125000;0.853908;408.416667;0.855484;31.849841;198.223507;484.000000;0.098755
-1.700432;0.351993;285.257330;209.312500;0.815046;869.000000;0.575468;0.000000;238.588238;0.000000;0.000000
-0.596216;0.378858;128.647564;216.625000;0.835828;3775.000000;0.889313;0.000000;228.096136;0.000000;0.000000
-0.840931;0.406311;50.333853;221.125000;0.845216;888.736842;0.807766;22.399004;212.012506;367.000000;0.021734
-1.422312;0.409283;-76.499929;229.750000;0.831635;366.708333;0.709519;46.528429;198.065734;1557.000000;0.176912
-1.088564;0.405743;22.685585;201.187500;0.846568;856.740741;0.873836;23.739266;207.571991;890.000000;0.038475
-0.502448;0.383158;58.326035;224.625000;0.839002;1572.500000;0.669686;41.919828;217.734010;0.000000;0.000000
-1.967405;0.441433;-176.921006;209.125000;0.848796;417.166667;0.907704;13.420452;184.769289;181.000000;0.072313
-1.062103;0.405797;-15.888634;211.062500;0.845232;613.780000;0.755123;33.723836;205.597522;2768.000000;0.090195
-0.028811;0.445118;-107.039698;146.187500;0.763750;311.200000;0.667735;50.129124;147.010660;3626.000000;0.332905
-0.134987;0.430857;-219.194504;181.687500;0.767287;348.272727;0.590857;48.061568;155.883831;21864.000000;0.356695
0.123046;0.465083;-481.961584;125.500000;0.762261;369.031250;0.697643;36.435167;134.839139;2865.000000;0.242612
-0.120995;0.446979;-337.060493;207.812500;0.772272;278.410256;0.697770;45.579448;145.108115;4488.000000;0.413336
-0.158089;0.417068;-326.469036;216.437500;0.790271;302.714286;0.752400;32.824650;163.561071;1151.000000;0.135795
-0.817882;0.366393;351.937633;159.875000;0.776876;1032.500000;0.648194;42.461632;213.689229;0.000000;0.000000
0.012573;0.437380;-32.512665;175.062500;0.766389;236.519231;0.573463;45.295598;152.378159;5355.000000;0.435401
-0.415624;0.421884;10.244165;139.062500;0.768143;297.861111;0.603010;46.321803;162.927927;4650.000000;0.433647
-0.277928;0.408056;-144.497100;213.062500;0.765269;423.916667;0.603678;46.596962;167.902500;7796.000000;0.255422
0.136480;0.435053;-267.588599;136.687500;0.761947;323.479167;0.622795;43.618042;150.119782;5716.000000;0.368133
0.048478;0.445039;-151.149781;158.250000;0.765449;335.468085;0.557793;49.007541;145.760322;5768.000000;0.365827
0.201399;0.483668;-402.869794;245.312500;0.759172;234.800000;0.628345;49.130013;118.170672;1071.000000;0.304089
-0.147559;0.398409;147.496405;181.625000;0.776839;342.363636;0.689800;44.623352;187.270879;247.000000;0.065587
-0.098040;0.450581;-80.047098;147.562500;0.766436;330.019608;0.601898;46.195332;146.562312;6907.000000;0.410374
-0.576699;0.396747;184.880321;180.687500;0.770641;396.500000;0.598920;44.295979;182.296871;1347.000000;0.283102
-0.449235;0.373600;303.211998;243.062500;0.769851;897.000000;0.398381;17.653661;207.313091;0.000000;0.000000
-0.268463;0.473320;-243.473641;153.250000;0.767096;467.222222;0.535605;40.847050;134.161729;866.000000;0.205945
-0.386835;0.412358;82.852475;172.625000;0.764883;345.642857;0.554281;44.978222;165.084702;1596.000000;0.164910
0.187993;0.459621;-679.545804;134.125000;0.761005;386.642857;0.605615;45.204307;131.929364;5360.000000;0.495104
0.583830;0.501583;-716.562615;126.437500;0.761728;300.904762;0.740376;42.182600;109.864183;2752.000000;0.435512
0.524040;0.479565;-510.583475;133.812500;0.769162;284.809524;0.667911;41.282632;127.038629;1434.000000;0.239759
-0.781479;0.377697;218.606792;109.875000;0.778434;479.250000;0.806711;28.621796;191.844651;0.000000;0.000000
0.013904;0.459043;-372.417484;174.500000;0.760925;305.000000;0.546564;45.020135;134.986716;1835.000000;0.376025
0.163908;0.441381;-377.053771;88.562500;0.758917;318.375000;0.597143;45.381063;141.016120;1970.000000;0.386729
-0.137846;0.431373;-140.333785;144.437500;0.764590;321.054054;0.560593;49.783181;152.990888;11502.000000;0.484132
0.185534;0.432402;-217.336818;128.062500;0.767935;326.479167;0.646986;41.322582;147.182681;4217.000000;0.269096
-1.541629;0.360560;235.356267;162.875000;0.787981;2729.000000;0.591241;6.456087;213.356060;0.000000;0.000000
-0.287661;0.405362;-613.072962;91.750000;0.748585;126.714286;0.648141;42.872330;137.731024;0.000000;0.000000
-0.169605;0.388685;-337.019523;172.000000;0.760675;310.222222;0.756437;8.478155;166.199618;679.000000;0.243195
-0.862622;0.381233;-20.551889;219.250000;0.781003;375.238806;0.752381;46.937721;188.133856;1497.000000;0.059544
-0.114461;0.453078;-537.408286;174.812500;0.781265;263.384615;0.687812;25.286347;136.611411;398.000000;0.116238
-0.752163;0.409248;-146.590020;173.625000;0.779786;323.466667;0.686480;33.340598;165.737639;2364.000000;0.243611
-1.119806;0.360733;238.532780;202.187500;0.772767;1104.000000;0.398080;14.362028;212.043886;0.000000;0.000000
-0.624548;0.414875;-384.947118;207.125000;0.752824;204.200000;0.721467;47.287461;146.368420;311.000000;0.152302
-0.736274;0.390430;-37.297685;220.312500;0.783297;399.464286;0.689296;33.640850;179.338986;2248.000000;0.200983
-0.139069;0.427607;-488.851581;153.500000;0.779253;173.785714;0.799056;39.190089;147.113862;846.000000;0.347719
-1.477308;0.363379;130.185811;94.562500;0.768846;763.285714;0.716274;43.958916;198.483943;169.000000;0.031630
-0.770531;0.363011;194.341431;186.875000;0.766754;1148.500000;0.629861;43.217803;212.024786;0.000000;0.000000
-0.628052;0.393656;-121.157153;208.125000;0.777566;331.642857;0.748931;40.938507;177.899130;1505.000000;0.162072
-0.751563;0.367010;80.746794;236.312500;0.772831;2063.333333;0.699332;11.237425;210.337734;274.000000;0.044265
-0.942646;0.371785;46.662305;225.812500;0.766978;622.285714;0.703906;47.605296;200.695062;216.000000;0.016529
-0.971622;0.369864;84.348601;213.187500;0.789553;681.090909;0.754386;19.654233;207.729420;196.000000;0.026161
-1.332607;0.377725;31.880621;208.812500;0.762957;588.241379;0.699814;29.846068;192.519870;841.000000;0.049299
-0.526039;0.422175;-121.327431;177.250000;0.774956;333.447761;0.672987;45.404223;170.912136;4272.000000;0.191218
-0.640545;0.420439;-348.643799;118.812500;0.773625;189.466667;0.584667;34.019262;153.922405;990.000000;0.348346
-0.016053;0.455493;-419.340577;136.875000;0.770460;290.129032;0.765312;21.347233;135.504395;1973.000000;0.219368
-0.057186;0.522832;-574.480227;114.875000;0.761538;300.750000;0.680160;27.002213;115.526384;1366.000000;0.567747
-0.368607;0.467593;-241.429729;172.375000;0.761944;328.742857;0.644799;46.397662;142.912279;2908.000000;0.252738
-0.099886;0.439989;22.424102;163.562500;0.763204;545.178571;0.559648;42.279608;159.582747;2858.000000;0.187226
-0.020495;0.476354;-344.252839;128.312500;0.758965;305.000000;0.513765;23.940835;137.199798;2113.000000;0.494848
-0.526698;0.444150;27.397482;140.625000;0.763827;465.398601;0.540703;46.325148;155.121046;15578.000000;0.234073
-0.153816;0.495713;-273.009822;125.687500;0.760645;321.766667;0.597672;41.476577;128.430303;4296.000000;0.445043
-0.135334;0.407312;215.118576;185.375000;0.772228;1878.666667;0.601451;46.496892;190.008880;0.000000;0.000000
-0.435752;0.443096;28.523011;109.625000;0.762270;519.936170;0.518320;46.328012;156.759948;7074.000000;0.289479
0.310377;0.555904;-609.963561;140.187500;0.753834;468.944444;0.597147;38.998195;104.843379;2540.000000;0.300912
-0.434143;0.475787;-81.388966;152.750000;0.762045;324.227273;0.564319;48.597165;138.925771;2404.000000;0.337025
-0.231748;0.459568;-54.494914;181.250000;0.764986;344.292453;0.548250;46.091801;149.530778;8171.000000;0.223894
-0.023466;0.508519;-514.223046;157.812500;0.753092;373.750000;0.511480;37.375287;117.938265;3332.000000;0.742921
-0.457769;0.451788;-32.884158;82.937500;0.768392;457.690909;0.496219;41.483124;155.138558;7926.000000;0.314861
-0.206716;0.447304;-40.791045;166.937500;0.776571;425.818182;0.624950;35.071300;155.277708;2711.000000;0.289389
-0.428248;0.445651;-41.104027;165.312500;0.767895;413.617978;0.526421;47.134555;157.868921;8743.000000;0.237504
-1.071059;0.393106;120.832551;128.062500;0.759872;733.000000;0.739248;44.750988;179.376216;259.000000;0.088336
0.290537;0.482211;-354.680901;88.250000;0.765170;305.588235;0.635203;38.866825;131.167817;899.000000;0.173051
-0.603527;0.438516;-30.007549;164.875000;0.773298;547.897959;0.629238;39.839334;162.016172;4772.000000;0.177748
-0.408470;0.460706;-194.578047;240.000000;0.770157;293.809524;0.634846;44.375001;147.467922;652.000000;0.105673
0.039018;0.447646;-314.053713;159.750000;0.763563;331.600000;0.592173;36.333084;142.048295;325.000000;0.196019
-0.386514;0.443126;-65.054806;105.375000;0.765228;463.267442;0.496152;41.692643;155.667258;14171.000000;0.355689
-0.366319;0.474284;-139.083680;151.125000;0.774991;311.476190;0.703677;33.585947;142.323146;1556.000000;0.237884
-2.057952;0.349043;481.008387;130.625000;0.789758;695.000000;0.328769;0.000000;227.027968;0.000000;0.000000
-0.520571;0.456353;-74.404248;158.187500;0.767410;473.027778;0.535671;44.578389;151.784609;7595.000000;0.223002
-0.014349;0.434604;23.867207;89.250000;0.776021;367.416667;0.687384;38.595846;160.751279;1744.000000;0.197777
-0.942536;0.420631;45.770829;188.375000;0.774110;1234.666667;0.650560;42.778200;175.239553;933.000000;0.125945
-1.349200;0.407008;148.189214;204.750000;0.777384;2055.636364;0.606397;31.587531;184.036093;2122.000000;0.046922
-0.410476;0.428968;49.982055;96.562500;0.773863;582.555556;0.540246;27.665364;168.023253;1378.000000;0.262827
-0.825156;0.435511;121.530981;179.312500;0.771262;727.300000;0.626904;37.134816;167.564203;1014.000000;0.139420
-0.520733;0.416605;183.893691;40.812500;0.772140;583.000000;0.565344;37.686629;177.651026;275.000000;0.067385
-0.332463;0.416635;106.378569;192.437500;0.771335;634.750000;0.696337;34.646802;172.236020;2150.000000;0.084679
-1.291510;0.391321;255.027312;177.812500;0.754133;1407.666667;0.543337;12.210304;188.858570;0.000000;0.000000
-0.033916;0.423888;-115.508630;119.062500;0.765428;330.555556;0.550708;49.286808;162.724767;6034.000000;0.289748
-0.066382;0.451029;-370.240127;118.250000;0.773073;306.916667;0.748898;26.696150;144.931130;836.000000;0.226989
-0.694441;0.430693;-207.558104;214.937500;0.775157;314.080000;0.720133;36.898993;156.562540;2189.000000;0.278782
-0.245257;0.416248;-64.306844;92.625000;0.780196;361.717172;0.686427;35.026027;168.349507;5752.000000;0.160626
-0.153922;0.434103;-240.371693;210.750000;0.776624;278.785714;0.763747;41.600658;148.402635;1510.000000;0.193441
0.255928;0.455489;-400.566369;120.250000;0.773349;226.210526;0.651416;47.493421;135.986098;1087.000000;0.252908
-1.884683;0.371736;157.172615;163.375000;0.777924;1539.200000;0.706575;30.550636;205.960260;0.000000;0.000000
0.322609;0.398416;47.477449;191.125000;0.778895;295.000000;0.685398;37.230540;181.762006;1499.000000;0.220929
-0.949449;0.395917;-58.648290;198.000000;0.789148;408.125000;0.843914;29.831833;175.189573;149.000000;0.045636
-1.246473;0.388003;127.811897;222.437500;0.823228;871.777778;0.813079;37.494300;199.481766;406.000000;0.051746
-1.040942;0.401966;-35.122541;188.250000;0.778235;267.758065;0.615528;38.651017;177.825234;7600.000000;0.228902
-1.178757;0.382787;109.513103;200.875000;0.795451;803.523810;0.746620;45.216649;197.660295;913.000000;0.054107
-0.953708;0.397511;-31.005647;195.687500;0.800515;280.321429;0.703435;30.935321;177.786871;742.000000;0.094534
-1.459302;0.383371;90.140936;188.375000;0.789346;711.800000;0.697615;28.504938;196.346731;485.000000;0.045425
-0.358233;0.385819;128.837805;216.562500;0.812861;3602.000000;0.927535;0.000000;210.946422;0.000000;0.000000
-0.275894;0.465121;-419.699497;148.062500;0.776883;275.714286;0.685701;43.514393;141.646509;172.000000;0.089119
-1.037106;0.376258;140.377808;192.437500;0.793638;1320.250000;0.687322;32.328830;207.123227;0.000000;0.000000
-1.129280;0.388047;137.162343;209.437500;0.813612;5679.000000;0.840639;0.000000;207.593980;0.000000;0.000000
-0.989010;0.393800;51.782198;160.000000;0.799085;634.916667;0.784702;25.426883;190.124844;658.000000;0.043182
-0.643757;0.385976;153.231969;215.187500;0.809453;6892.000000;0.651295;0.000000;207.770635;0.000000;0.000000
-1.142845;0.394950;46.064701;225.187500;0.800708;685.769231;0.752736;44.419971;192.288271;0.000000;0.000000
-0.529851;0.368775;222.524254;204.062500;0.799820;4511.000000;0.907952;0.000000;216.404344;0.000000;0.000000
-0.554689;0.371614;213.420031;242.812500;0.796065;710.666667;0.866654;33.343173;213.682354;0.000000;0.000000
-0.170820;0.467870;-383.554229;155.250000;0.768846;212.642857;0.524544;46.837503;132.379609;857.000000;0.287874
-1.008190;0.387968;139.760865;208.812500;0.800882;879.340426;0.737984;38.390463;197.026008;1244.000000;0.030100
-0.358899;0.432954;-161.469630;206.312500;0.784389;299.821429;0.641128;49.203579;159.572995;2199.000000;0.261942
-0.804667;0.373911;267.131044;177.750000;0.813844;2165.600000;0.623321;16.463307;207.235479;0.000000;0.000000
-0.017736;0.459080;-248.389172;123.125000;0.772184;302.169014;0.622262;39.897195;143.073249;7706.000000;0.359187
-0.121270;0.395352;313.292865;166.875000;0.786276;1230.000000;0.540922;0.000000;201.348035;0.000000;0.000000
-0.123290;0.471724;-253.960915;120.500000;0.769326;362.625000;0.588190;43.934874;141.659716;3913.000000;0.269769
-0.685820;0.435475;-129.449480;135.125000;0.782480;396.317308;0.565681;42.495339;164.866414;8208.000000;0.199141
0.092537;0.510990;-421.347403;181.562500;0.762871;321.545455;0.678013;43.278742;117.177827;1231.000000;0.348035
-0.573301;0.409307;122.704622;181.437500;0.801244;596.500000;0.758918;10.150158;191.746467;0.000000;0.000000
-0.243098;0.476515;-259.435252;168.937500;0.775280;333.684211;0.609951;32.503575;140.646026;2336.000000;0.368454
-0.528323;0.442215;-126.963906;211.062500;0.785261;370.088889;0.656583;47.411470;162.328003;4339.000000;0.260538
-0.373667;0.443114;-115.162656;122.250000;0.780239;299.953488;0.577362;43.359675;160.031449;3005.000000;0.232982
-0.201044;0.455487;-223.719197;110.000000;0.775582;331.785714;0.585050;39.700720;152.065513;2365.000000;0.254575
-0.281188;0.442374;-339.930937;162.562500;0.773911;253.879518;0.683159;36.572470;150.083500;4882.000000;0.231682
-0.097426;0.461648;-168.850567;80.500000;0.772231;258.041667;0.618384;37.352255;144.090010;5278.000000;0.426126
-0.083683;0.453455;-130.611400;181.750000;0.770794;310.859375;0.623299;40.470811;147.171273;6728.000000;0.338175
-0.308248;0.454342;-116.596097;154.062500;0.772611;293.465909;0.615662;41.442369;148.852779;7804.000000;0.302188
0.148844;0.484946;-457.398704;143.500000;0.769465;384.880952;0.635794;43.162896;132.691412;3732.000000;0.230869
-0.228231;0.452727;-408.324349;159.812500;0.768175;261.461538;0.575700;46.368329;144.151110;2657.000000;0.260567
0.207148;0.493795;-420.792078;149.062500;0.764907;249.166667;0.625589;31.987715;125.545095;2292.000000;0.511037
-0.238649;0.431931;-79.872753;161.375000;0.780658;201.843750;0.645466;34.450698;161.782025;1163.000000;0.180059
-1.690455;0.399186;74.562077;215.437500;0.808205;1898.000000;0.888278;19.230978;196.336863;261.000000;0.019645
-0.968040;0.407087;114.013496;215.000000;0.794396;1529.800000;0.679328;29.255998;190.467615;400.000000;0.052294
-0.322409;0.432843;-0.150610;74.250000;0.788641;315.333333;0.847339;19.272354;164.458083;971.000000;0.171071
-0.345738;0.398602;108.685003;200.062500;0.783177;703.000000;0.749552;40.224022;192.456539;0.000000;0.000000
-1.348637;0.396318;143.154350;195.500000;0.809386;2185.413793;0.706758;32.143013;199.890086;1705.000000;0.026903
-0.444789;0.455665;-325.501864;166.687500;0.776943;275.500000;0.707887;36.160314;148.957125;575.000000;0.208711
-0.360011;0.369027;214.510569;207.500000;0.781801;744.500000;0.672963;17.838667;218.884854;0.000000;0.000000
-1.009960;0.408940;98.612697;188.750000;0.789013;1264.846154;0.680467;23.195357;187.667493;512.000000;0.031138
-0.391195;0.379982;216.347132;197.312500;0.798128;1678.000000;0.702973;17.079212;209.475982;0.000000;0.000000
-0.326641;0.430553;-94.785739;185.562500;0.783422;204.937500;0.804011;26.118156;159.679947;1039.000000;0.316865
-0.011621;0.404108;217.839235;185.812500;0.792966;2866.000000;0.695382;0.000000;194.594561;0.000000;0.000000
-1.925791;0.393320;149.658393;206.312500;0.818078;3503.500000;0.826611;2.838460;207.059412;286.000000;0.013605
-1.239034;0.415813;43.641461;207.687500;0.810284;1337.571429;0.870976;9.044925;189.269175;767.000000;0.081918
-0.592254;0.398462;90.742258;147.312500;0.778716;580.444444;0.637942;28.636398;186.040173;598.000000;0.114472
-1.419268;0.403876;84.314951;214.125000;0.797223;1293.250000;0.740810;15.664095;191.841519;714.000000;0.138024
-0.892068;0.406415;137.013153;185.812500;0.789326;873.600000;0.552385;43.078942;187.902066;263.000000;0.060211
-0.598654;0.407074;194.868511;198.937500;0.802832;2118.000000;0.560838;14.489518;194.990152;166.000000;0.026125
-1.106249;0.408345;115.302931;190.562500;0.798785;1321.375000;0.639046;37.277913;190.559032;566.000000;0.053543
-0.487062;0.408607;142.362436;152.125000;0.806185;3924.000000;0.706627;14.183382;195.460053;0.000000;0.000000
-0.905167;0.413375;29.608877;181.375000;0.785272;517.695652;0.570784;28.434096;180.635050;2044.000000;0.171664
-0.734959;0.396519;181.171265;208.437500;0.815709;1320.000000;0.672218;35.108996;201.384766;0.000000;0.000000
0.351120;0.393314;219.552002;189.750000;0.796925;1576.000000;0.946317;0.000000;202.951101;0.000000;0.000000
-1.284094;0.414296;50.327087;209.687500;0.822993;1783.000000;0.616878;16.844939;195.920321;296.000000;0.033202
-0.792786;0.432350;-10.528860;160.875000;0.792105;417.937500;0.689146;38.934363;168.267336;611.000000;0.091371
-0.611972;0.388052;154.202597;178.250000;0.795649;4736.000000;0.751554;0.000000;200.557168;0.000000;0.000000
-1.983922;0.373164;190.351452;120.812500;0.784958;3012.333333;0.523257;41.987396;205.228941;240.000000;0.013279
-1.000388;0.401293;253.930501;182.937500;0.789418;682.166667;0.668042;33.424400;186.789098;0.000000;0.000000
-0.446475;0.409823;168.600331;177.375000;0.816109;3492.000000;0.815599;0.000000;195.684694;0.000000;0.000000
0.611952;0.519446;-865.979687;104.437500;0.752563;258.348485;0.700823;38.409295;106.630536;3339.000000;0.195824
0.184189;0.457967;-374.209027;113.625000;0.765552;293.285714;0.688488;49.214978;135.923042;1576.000000;0.255886
-0.443938;0.408256;33.966312;186.062500;0.797812;283.700000;0.795763;26.704506;174.474541;780.000000;0.137469
0.066624;0.477775;-551.073309;148.000000;0.757046;198.000000;0.682131;33.633145;120.000291;668.000000;0.259518
-0.234437;0.414442;-25.966523;185.125000;0.771191;376.061538;0.631095;49.438867;167.153410;15311.000000;0.313185
-0.026799;0.468512;-404.495934;169.750000;0.767024;253.565217;0.626758;39.607094;131.552385;3021.000000;0.518004
-0.219989;0.432654;-62.764391;128.250000;0.768565;300.793103;0.578701;45.472620;158.227170;6004.000000;0.344148
-0.064746;0.409470;196.967723;183.250000;0.794754;435.047619;0.671732;29.581499;180.455061;927.000000;0.101467
0.074909;0.459382;-418.990474;115.500000;0.767595;262.372093;0.629463;35.804812;132.322506;3129.000000;0.277344
-0.409314;0.432809;-42.233556;176.250000;0.771152;388.964912;0.555625;45.553740;161.691322;6160.000000;0.277840
-0.516281;0.426951;-14.396822;149.125000;0.768207;291.471429;0.533721;47.330107;163.178578;7612.000000;0.373082
-0.536598;0.407386;186.943482;164.750000;0.799621;477.653846;0.687031;45.268657;183.306318;1366.000000;0.109993
-0.622187;0.422782;3.894042;184.812500;0.769084;331.413333;0.583629;48.133194;166.139964;7439.000000;0.299284
-0.109388;0.430543;-49.831541;148.250000;0.766223;283.940000;0.634016;47.697192;156.034919;3117.000000;0.219553
-0.543276;0.425991;21.431866;118.062500;0.768545;302.071429;0.530257;49.512542;162.260884;8545.000000;0.288653
-0.015483;0.469944;-279.965398;145.000000;0.757252;256.947368;0.584571;42.513898;129.819684;2230.000000;0.456780
-0.447057;0.413747;-184.314780;155.562500;0.766952;272.661538;0.659278;42.821761;164.977041;4342.000000;0.244992
-0.511361;0.430538;8.755414;170.500000;0.767206;286.287879;0.606461;48.594562;159.942674;18573.000000;0.327653
-0.457249;0.428621;-24.590899;196.062500;0.769959;359.828829;0.591029;49.531073;162.304880;11016.000000;0.275807
0.020835;0.406846;150.888104;190.625000;0.796058;533.769231;0.752847;24.852326;187.403630;0.000000;0.000000
-0.801261;0.419253;14.323228;189.187500;0.853383;3001.500000;0.946475;0.858455;189.527610;0.000000;0.000000
-0.235301;0.420700;-71.565624;180.375000;0.788666;337.947368;0.784582;21.740663;163.415931;416.000000;0.064787
-0.811607;0.383211;109.290376;172.875000;0.774310;454.840000;0.696611;26.183094;191.881023;1013.000000;0.089086
-0.882949;0.403540;139.421420;207.125000;0.783019;380.476190;0.677842;36.756713;180.544157;931.000000;0.116521
-0.532804;0.429550;-373.936530;163.312500;0.821717;326.720000;0.939165;7.568311;162.307836;949.000000;0.116185
-0.667688;0.389663;11.423509;138.562500;0.813837;920.200000;0.763937;31.997445;199.101975;0.000000;0.000000
-0.426818;0.405079;38.545807;183.375000;0.825449;887.120000;0.775822;22.730087;191.130275;243.000000;0.010957
-0.462527;0.432085;-131.348457;193.250000;0.802802;280.647059;0.944569;12.200816;158.210365;0.000000;0.000000
-0.514821;0.380969;187.725492;181.500000;0.794111;826.750000;0.930488;3.064405;204.321750;0.000000;0.000000
-0.728712;0.406995;-92.844246;192.125000;0.817194;446.461538;0.873487;9.735129;180.571012;0.000000;0.000000
-0.345160;0.415630;119.549113;167.250000;0.769495;264.380952;0.583380;45.609737;174.954123;1532.000000;0.275937
-0.353961;0.431634;-27.223712;133.312500;0.769377;270.331210;0.591098;44.565173;159.171921;12746.000000;0.300316
-0.241866;0.434637;-200.236206;181.187500;0.769804;287.113636;0.609520;38.338056;154.426598;1523.000000;0.120557
-0.212565;0.445251;-193.585289;149.687500;0.768748;323.055556;0.617373;46.440641;152.905633;8602.000000;0.211325
-0.942286;0.388901;259.819898;245.812500;0.765127;484.846154;0.595276;34.137334;186.940811;561.000000;0.044503
0.168809;0.415496;29.694171;177.562500;0.797377;277.777778;0.747640;13.828140;181.168190;0.000000;0.000000
-0.896517;0.403777;123.693999;203.062500;0.792558;659.107143;0.734062;33.566635;186.598669;375.000000;0.020320
-0.980201;0.402663;99.744045;182.812500;0.803617;851.066667;0.772429;17.440974;189.001250;1901.000000;0.074456
-0.994862;0.408791;-5.382845;172.750000;0.794470;634.545455;0.824536;20.662984;182.640808;930.000000;0.044413
-0.808958;0.406089;82.440854;198.562500;0.816428;3284.000000;0.903893;8.249710;191.377809;224.000000;0.017052
-1.225969;0.399052;140.046429;183.062500;0.808910;3194.142857;0.762441;34.097689;196.406956;0.000000;0.000000
0.522179;0.381049;128.916802;196.812500;0.758620;2039.000000;0.939179;0.000000;200.200052;0.000000;0.000000
-1.537637;0.385824;99.288548;167.312500;0.758190;3438.250000;0.786943;10.069962;193.969329;216.000000;0.015706
-0.574066;0.370265;80.045944;204.000000;0.818518;1360.000000;0.976809;0.000000;217.626924;0.000000;0.000000
-0.482273;0.422877;-267.111020;184.500000;0.782012;313.160000;0.618888;42.767245;164.811437;5625.000000;0.359241
-0.278936;0.434657;-380.427617;163.500000;0.768774;249.777778;0.556968;39.073457;149.609796;2285.000000;0.338820
-0.395191;0.425725;-311.155126;172.062500;0.775156;370.708333;0.601036;38.419793;162.408975;925.000000;0.103968
-0.976959;0.409026;-239.353732;201.750000;0.786524;260.339623;0.659612;42.035611;173.629237;3579.000000;0.259385
-0.332005;0.441879;-339.424282;197.562500;0.773804;321.217391;0.648931;46.761160;150.610414;2490.000000;0.337033
-2.420261;0.348696;237.619042;138.125000;0.823380;2950.000000;0.954699;0.000000;240.962109;0.000000;0.000000
-0.249885;0.432350;-356.758998;179.687500;0.772934;260.107143;0.535164;49.400834;153.295227;3778.000000;0.518742
-0.510512;0.446671;-576.824190;122.062500;0.781279;269.071429;0.598148;24.668310;144.275871;2093.000000;0.555615
-0.530973;0.417534;-272.775411;178.250000;0.782549;299.361702;0.592981;44.839625;168.388996;5242.000000;0.372566
-0.866718;0.394554;-198.907113;208.375000;0.787566;358.317073;0.577809;47.968623;183.053065;3729.000000;0.253829
-1.749989;0.373092;26.140829;224.250000;0.812775;1180.333333;0.676657;33.810301;211.000160;2402.000000;0.135668
-1.972875;0.376197;124.711623;183.437500;0.813406;804.437500;0.534279;33.028293;210.758363;993.000000;0.077150
-0.802606;0.360734;124.434602;224.187500;0.821770;9928.000000;0.903822;0.000000;226.710038;0.000000;0.000000
-1.253364;0.351943;139.948437;217.000000;0.807151;2263.500000;0.942568;3.026601;233.381677;0.000000;0.000000
-0.825078;0.384333;-300.188636;184.500000;0.794820;221.727273;0.730872;35.298188;179.257999;220.000000;0.090201
-1.595554;0.386311;-162.876300;227.687500;0.830873;446.833333;0.850133;20.137253;191.726240;0.000000;0.000000
-1.864363;0.373406;32.595847;227.750000;0.821764;1392.800000;0.857816;8.082570;212.664458;290.000000;0.041643
-2.102813;0.363430;83.578878;222.875000;0.818961;3362.200000;0.827733;7.877623;219.802218;211.000000;0.012551
-2.148836;0.350230;180.151130;219.125000;0.810508;12491.000000;0.896612;0.000000;233.107674;0.000000;0.000000
-0.432568;0.411328;-389.304717;242.500000;0.785724;227.800000;0.629009;41.548801;160.234686;599.000000;0.131475
-2.167112;0.350187;133.452124;214.437500;0.806463;3631.000000;0.868820;0.000000;233.349545;0.000000;0.000000
-1.851868;0.347848;75.505409;244.500000;0.808216;5897.000000;0.958723;0.000000;235.484617;0.000000;0.000000
-2.111662;0.361376;66.706074;219.187500;0.822196;8096.500000;0.299333;32.675421;222.657303;252.000000;0.015562
-1.846816;0.365517;81.559202;222.437500;0.814874;2002.000000;0.434949;36.366881;218.598368;620.000000;0.025808
-1.630267;0.354243;172.545747;163.875000;0.826144;2010.000000;0.926582;0.000000;235.980411;0.000000;0.000000
-1.527457;0.371962;23.524871;153.312500;0.810968;890.176471;0.827531;12.811508;207.602441;688.000000;0.045464
-1.945277;0.363314;69.073513;218.812500;0.812675;1455.333333;0.724463;38.268420;217.563318;1360.000000;0.062300
-1.921913;0.353256;117.074942;210.812500;0.816979;9282.000000;0.958790;0.000000;232.702555;0.000000;0.000000
-2.461403;0.359501;100.471689;219.937500;0.812367;1997.285714;0.907325;7.199249;222.035365;533.000000;0.038123
-1.830579;0.352669;141.713818;234.875000;0.806697;2777.500000;0.746998;16.120839;231.941805;0.000000;0.000000
-0.852504;0.349939;148.537267;246.375000;0.809860;2948.000000;0.935381;0.000000;236.648435;0.000000;0.000000
-1.099618;0.387876;-2.197959;201.625000;0.830702;375.615385;0.675687;42.798190;192.692412;0.000000;0.000000
-1.973828;0.362476;142.814864;154.437500;0.815723;3470.500000;0.938657;6.768582;224.550455;0.000000;0.000000
-1.510312;0.368769;85.312909;224.062500;0.815037;985.750000;0.453980;45.061499;214.085373;421.000000;0.053386
-1.398277;0.386477;-61.927893;142.875000;0.835043;354.842105;0.657446;40.669208;199.007339;922.000000;0.136755
-1.281339;0.374831;-188.977030;225.125000;0.812732;446.500000;0.677117;44.022681;199.511027;774.000000;0.057783
-1.638673;0.365500;95.795749;217.562500;0.806787;1312.000000;0.729131;39.130133;215.132806;1078.000000;0.058689
-1.427927;0.377451;91.901803;241.562500;0.835414;1247.500000;0.471731;34.300996;216.994652;187.000000;0.037475
-1.003084;0.355732;175.983886;128.750000;0.817113;2410.000000;0.605675;0.000000;234.447801;0.000000;0.000000
-1.759235;0.366612;49.906631;181.500000;0.813663;820.705882;0.733039;46.959997;214.474559;585.000000;0.041929
-0.928555;0.380889;44.689032;199.562500;0.799907;542.562500;0.713753;39.563553;197.309113;541.000000;0.062320
-1.410966;0.356178;145.100067;238.375000;0.819511;6973.000000;0.883109;0.000000;231.458657;0.000000;0.000000
-1.439747;0.368477;63.864433;221.000000;0.809299;770.750000;0.680299;33.834145;211.425595;987.000000;0.040018
-1.348992;0.354550;185.825356;230.750000;0.807418;2981.500000;0.767616;6.220157;228.630056;0.000000;0.000000
-1.583731;0.374428;56.758034;215.125000;0.820387;771.774194;0.804507;27.870255;207.890731;950.000000;0.039707
-1.180350;0.347449;172.721024;192.125000;0.809458;3135.000000;0.864624;0.000000;238.682781;0.000000;0.000000
-1.534613;0.352027;152.826950;205.312500;0.807106;3376.000000;0.888159;11.906165;234.676079;0.000000;0.000000
-0.502851;0.391871;-136.195437;233.562500;0.810729;196.692308;0.745244;23.057819;188.329375;452.000000;0.176770
-1.420624;0.349270;86.269412;223.562500;0.807385;1267.500000;0.601384;17.242548;232.535541;0.000000;0.000000
-0.533012;0.405916;-562.471583;215.312500;0.765402;152.285714;0.830081;25.054957;146.519406;0.000000;0.000000
-1.369670;0.374779;78.139944;227.375000;0.824904;521.333333;0.673475;45.440135;209.896721;948.000000;0.060614
-1.172172;0.361381;195.082312;228.250000;0.812881;3802.000000;0.690691;0.000000;221.320248;0.000000;0.000000
-1.075066;0.368248;72.900335;225.437500;0.824751;2116.625000;0.767294;16.626221;219.177276;0.000000;0.000000
-1.812354;0.361120;76.807138;231.312500;0.825970;2078.000000;0.438415;22.541402;226.216921;0.000000;0.000000
-1.281032;0.358648;196.839364;187.312500;0.806485;347.000000;0.778014;31.479557;220.360555;0.000000;0.000000
-1.232737;0.371415;73.251155;236.937500;0.816014;1273.833333;0.793252;27.376949;211.766907;482.000000;0.031532
-1.749548;0.358234;147.579080;196.062500;0.796024;1219.583333;0.694399;17.039569;219.616137;842.000000;0.057533
-0.481024;0.442795;-314.398134;116.500000;0.778690;328.000000;0.490640;44.354506;160.638805;1076.000000;0.273374
0.146711;0.528304;-902.620816;100.312500;0.771851;1005.000000;0.330996;0.000000;107.787384;0.000000;0.000000
-0.148594;0.461376;-485.806850;142.937500;0.773015;279.133333;0.654399;45.657304;145.306458;3183.000000;0.380105
0.148583;0.473686;-436.509747;183.562500;0.764509;331.620690;0.539305;40.293522;138.192847;4882.000000;0.507643
-0.346172;0.441569;-186.985650;157.187500;0.782411;288.923077;0.597654;45.613292;162.591534;731.000000;0.194622
-0.065213;0.470831;-420.737900;163.375000;0.776985;625.000000;0.305254;24.084254;144.000915;701.000000;0.560800
-0.628723;0.474132;-478.157305;161.687500;0.771960;353.444444;0.714953;24.476522;135.350435;1528.000000;0.480352
0.123605;0.475096;-487.988429;130.687500;0.770199;353.566667;0.658853;33.762844;135.458383;2908.000000;0.274159
0.176344;0.485122;-556.916078;118.500000;0.765956;317.913043;0.705676;32.998885;131.820795;2924.000000;0.399891
0.036066;0.458469;-493.769467;140.625000;0.777469;398.222222;0.609145;48.493718;149.728748;1669.000000;0.465681
0.108315;0.487858;-552.168502;189.125000;0.768932;330.750000;0.655058;44.226227;127.918541;1757.000000;0.265608
-0.401120;0.499804;-609.892526;115.062500;0.775369;424.666667;0.744265;15.180206;130.925178;0.000000;0.000000
-0.487191;0.441253;-265.170478;143.750000;0.787810;349.312500;0.767468;34.099505;160.805421;1324.000000;0.236894
-0.128734;0.482987;-591.284684;124.687500;0.769600;289.642857;0.717019;29.051598;129.494066;1364.000000;0.336375
-0.509188;0.432123;-431.364173;190.250000;0.774553;294.875000;0.512519;41.068581;156.238504;1439.000000;0.610004
-0.008621;0.451402;-476.129956;125.812500;0.773737;274.718750;0.581672;43.861249;147.412622;4027.000000;0.458082
-0.226433;0.471019;-496.905644;154.562500;0.782679;493.666667;0.544489;35.690337;140.193573;860.000000;0.290344
0.003997;0.435814;-532.141816;139.562500;0.778963;203.391304;0.674337;29.954666;145.660280;544.000000;0.116289
0.080560;0.487563;-484.922756;77.000000;0.777082;386.222222;0.516129;41.302515;136.164784;1901.000000;0.546893
-1.040374;0.381448;147.121443;213.937500;0.806718;1376.500000;0.613799;24.678916;199.840551;780.000000;0.094442
-1.579557;0.372918;94.160081;214.125000;0.808392;1614.500000;0.640900;43.163087;208.594591;205.000000;0.031744
-1.983420;0.360841;150.807468;184.750000;0.799198;1710.250000;0.659226;15.270565;222.014433;0.000000;0.000000
-1.654456;0.371385;78.264855;231.625000;0.818162;3058.857143;0.777691;11.014961;214.060005;716.000000;0.016720
-0.944824;0.370217;113.931859;171.375000;0.807226;1111.800000;0.866119;11.921543;214.955017;321.000000;0.028872
-0.026653;0.465748;-560.344784;170.750000;0.773691;250.000000;0.794519;8.611492;130.102946;0.000000;0.000000
-2.228165;0.361546;126.719245;230.250000;0.807624;3951.000000;0.920661;0.000000;222.383638;0.000000;0.000000
-1.210166;0.371298;78.390998;224.937500;0.819708;3334.250000;0.826306;12.370936;214.723636;334.000000;0.025043
-1.503502;0.371385;102.335130;174.062500;0.815090;1972.666667;0.808007;14.933421;213.506218;614.000000;0.025938
-0.988053;0.385314;29.045148;209.500000;0.818664;962.000000;0.745544;21.870538;201.818549;699.000000;0.048441
-0.826846;0.369047;117.606898;194.875000;0.814857;4284.500000;0.598561;16.650261;216.074662;0.000000;0.000000
-1.051872;0.386134;47.335512;216.625000;0.797725;734.060606;0.794689;27.943847;196.588470;1727.000000;0.071293
-0.995361;0.382275;118.376178;211.562500;0.796348;866.000000;0.743704;42.471647;203.273912;0.000000;0.000000
0.509819;0.568055;-1812.985234;112.687500;0.737621;404.000000;0.930415;0.000000;72.315499;404.000000;1.000000
-1.023958;0.372772;46.752203;215.750000;0.814784;2750.714286;0.831896;14.621916;213.857493;431.000000;0.022384
-1.355936;0.379866;74.507742;228.500000;0.815696;1501.222222;0.814187;14.446832;209.748945;1013.000000;0.037488
-1.951110;0.370857;58.711369;223.937500;0.804655;2666.833333;0.514949;19.601863;212.594925;1067.000000;0.066683
-1.374112;0.379807;95.535170;93.625000;0.808880;1279.695652;0.771889;34.455732;209.465918;868.000000;0.029491
-0.558688;0.410014;-69.707881;135.562500;0.788431;339.200000;0.833872;22.179032;176.081300;1061.000000;0.156397
-0.828686;0.387626;16.534994;164.250000;0.804228;695.375000;0.813813;26.828691;201.143688;340.000000;0.030559
-1.607126;0.361619;142.670315;239.000000;0.800040;2620.500000;0.908541;1.870286;221.297767;353.000000;0.067354
-0.681241;0.368602;118.933186;214.375000;0.808149;16287.000000;0.961569;0.000000;220.240182;0.000000;0.000000
-0.373680;0.442652;-302.770511;213.187500;0.781516;296.571429;0.811420;22.115404;151.672345;478.000000;0.230250
-1.132139;0.359876;183.665540;218.125000;0.802380;3645.000000;0.965358;0.000000;224.993914;0.000000;0.000000
-1.409596;0.385868;43.394587;227.875000;0.801425;1383.000000;0.646910;20.924451;202.358883;1091.000000;0.056347
-1.693936;0.361696;171.782342;198.875000;0.805115;6873.000000;0.855909;4.981533;223.310925;0.000000;0.000000
-1.259882;0.381407;87.987262;225.687500;0.808742;1691.400000;0.807965;14.369577;202.379132;0.000000;0.000000
-1.342729;0.372962;125.000732;207.375000;0.798459;1121.076923;0.684416;20.322057;207.468019;402.000000;0.027583
-1.256485;0.380859;236.541552;191.125000;0.793437;960.137931;0.662763;46.787891;199.186349;1845.000000;0.066262
-1.056111;0.374281;225.943428;221.812500;0.823749;8861.000000;0.572460;0.000000;219.531977;0.000000;0.000000
-1.058741;0.356705;203.500289;216.187500;0.800112;2032.000000;0.942939;0.000000;229.459969;0.000000;0.000000
-0.944196;0.377397;144.763825;210.875000;0.790183;672.300000;0.717990;41.988591;202.476452;781.000000;0.116168
-1.267016;0.377068;102.082067;241.437500;0.796026;1643.857143;0.848993;10.907843;204.900877;588.000000;0.051099
-1.493375;0.381328;82.053760;203.625000;0.798743;870.380952;0.658631;50.365719;198.875047;1301.000000;0.071178
-1.143203;0.391427;18.386955;228.500000;0.805065;891.260000;0.737097;29.369670;201.880490;4533.000000;0.101721
0.405840;0.467252;-494.263927;148.125000;0.771277;332.500000;0.642345;22.285643;137.571539;1191.000000;0.596992
0.388082;0.482952;-629.897346;176.937500;0.765021;295.923077;0.653086;43.155038;128.981307;2270.000000;0.295035
-0.134987;0.393360;1.854404;178.375000;0.808253;206.800000;0.721613;26.215160;187.076906;560.000000;0.180529
-1.089342;0.372172;164.827605;238.125000;0.810620;638.400000;0.723512;32.339833;211.696342;379.000000;0.059367
0.385194;0.474756;-619.588955;103.750000;0.768255;215.800000;0.593636;43.944157;135.685616;830.000000;0.128205
-0.194344;0.446927;-471.605144;125.312500;0.782424;215.650000;0.596599;32.868289;150.428485;1917.000000;0.444470
-0.205900;0.459503;-385.791731;148.750000;0.776157;242.333333;0.500260;24.932368;143.013944;1308.000000;0.599725
0.048918;0.434295;-230.217995;165.937500;0.771878;253.316667;0.603597;43.168216;157.807380;4347.000000;0.286006
-0.435213;0.408297;-247.333366;206.687500;0.797662;246.550000;0.724653;26.660040;173.688822;1584.000000;0.321233
0.012517;0.468352;-436.524198;130.125000;0.764622;279.952381;0.614550;48.799250;138.998981;2109.000000;0.358734
0.067001;0.444150;-258.591773;152.625000;0.775518;303.114286;0.687008;32.117383;154.552351;5211.000000;0.491187
0.000769;0.471044;-495.274540;131.125000;0.771251;305.652174;0.621401;40.794136;139.898483;2016.000000;0.286771
0.238350;0.469936;-573.143769;178.562500;0.766564;293.600000;0.646486;44.986818;135.935373;1760.000000;0.399637
-1.951605;0.349598;397.991055;229.500000;0.784677;2407.000000;0.505008;0.000000;234.231257;0.000000;0.000000
-0.563734;0.355934;123.719053;225.812500;0.797979;3702.000000;0.965992;0.000000;230.614769;0.000000;0.000000
-1.337546;0.371585;-32.289562;179.875000;0.786165;645.916667;0.638722;37.224144;202.929371;1076.000000;0.138821
0.156300;0.484646;-1122.509436;115.250000;0.752459;443.000000;0.853012;0.000000;109.606040;443.000000;1.000000
-1.687875;0.367447;-3.780694;231.062500;0.788086;1108.666667;0.819690;12.472205;208.758847;1316.000000;0.079134
-1.714879;0.372303;-107.535010;237.250000;0.812305;658.800000;0.913006;6.685864;202.162653;0.000000;0.000000
-0.796240;0.365208;283.069538;127.500000;0.789026;3490.000000;0.832487;0.000000;218.903612;0.000000;0.000000
-1.046685;0.362121;192.231567;229.312500;0.815435;1218.750000;0.826379;20.342807;220.656054;143.000000;0.029333
-1.889481;0.365409;172.060664;174.187500;0.792501;5185.333333;0.667326;11.122508;216.666492;251.000000;0.016135
-0.890513;0.367818;271.232132;223.562500;0.794247;1008.000000;0.516041;28.519511;217.745000;225.000000;0.055804
-0.948100;0.371016;-136.555298;191.812500;0.792109;274.625000;0.823385;13.588430;192.430960;0.000000;0.000000
-0.347415;0.375811;248.596549;205.937500;0.796324;4999.000000;0.907329;0.000000;212.014915;0.000000;0.000000
-2.715949;0.366341;144.988858;200.625000;0.827532;5574.000000;0.846307;39.545850;218.813124;0.000000;0.000000
-1.788113;0.364728;51.180292;223.687500;0.824255;2918.000000;0.815828;22.742356;217.434058;209.000000;0.007958
-1.604499;0.374884;44.325949;210.250000;0.834965;2305.717949;0.699768;29.620745;214.323252;2269.000000;0.025233
-1.294764;0.376311;28.493347;231.625000;0.815236;1019.809524;0.675555;41.799228;206.759531;1615.000000;0.075411
-1.129909;0.373743;68.433307;228.000000;0.828821;1650.666667;0.633013;18.580406;214.257646;0.000000;0.000000
-0.413182;0.374616;283.992559;162.187500;0.813691;2645.000000;0.850671;0.000000;216.693820;0.000000;0.000000
-1.438426;0.382456;13.862126;223.812500;0.845016;1319.250000;0.710621;20.931432;207.604518;0.000000;0.000000
-1.058914;0.370047;153.310365;167.250000;0.821764;6894.000000;0.577970;0.000000;217.652091;0.000000;0.000000
-1.009376;0.356727;142.525534;242.937500;0.818644;3382.000000;0.948621;0.000000;234.398102;0.000000;0.000000
-1.671377;0.354546;116.224017;237.937500;0.810366;7150.000000;0.958757;0.000000;233.774761;0.000000;0.000000
-1.752652;0.362795;252.412507;247.625000;0.806377;2325.000000;0.962455;0.000000;227.288103;0.000000;0.000000
-0.909815;0.380957;-17.255579;196.625000;0.832835;1236.809524;0.811182;11.005241;207.486278;639.000000;0.024602
-1.551097;0.374523;-1.709851;226.062500;0.837604;3719.250000;0.611132;35.355286;215.646016;220.000000;0.014788
-2.070561;0.369101;23.738283;190.250000;0.815692;3280.333333;0.720836;9.566241;212.710105;752.000000;0.038207
-0.949711;0.354119;114.945667;207.750000;0.806190;4019.000000;0.636675;0.000000;233.894352;0.000000;0.000000
-1.496059;0.372205;42.744572;220.250000;0.821044;988.892857;0.693361;34.714584;209.422643;1085.000000;0.039185
-0.574357;0.423404;-141.286621;180.500000;0.795793;241.125000;0.765322;36.365171;160.809422;0.000000;0.000000
-1.898570;0.369029;58.268135;148.312500;0.822265;1689.400000;0.719959;33.794219;218.532791;234.000000;0.013851
-0.402494;0.425528;-714.912826;199.125000;0.784583;149.400000;0.771341;9.051325;139.596086;244.000000;0.326640
-2.394140;0.364192;139.334772;237.687500;0.811458;4592.333333;0.863395;15.085362;217.987984;334.000000;0.024243
-1.840260;0.369550;87.393200;210.687500;0.825622;3803.857143;0.781905;6.323813;217.656329;0.000000;0.000000
-0.738697;0.385574;50.278585;220.062500;0.804394;562.416667;0.797508;25.147221;196.838961;0.000000;0.000000
-4.818107;0.351423;174.651124;200.062500;0.812332;4886.000000;0.948058;0.000000;232.162598;0.000000;0.000000
-1.611875;0.370392;86.838455;218.687500;0.817965;1781.333333;0.772666;26.700764;214.014032;638.000000;0.029847
-0.042737;0.457098;-342.935744;153.875000;0.752094;302.958333;0.624307;44.993648;133.773626;2826.000000;0.388667
-0.041481;0.465024;-306.015313;92.500000;0.762169;414.230769;0.615057;42.572227;134.762129;1460.000000;0.271123
-0.085554;0.467136;-287.972676;167.187500;0.760821;264.757576;0.602842;43.286936;134.039944;4512.000000;0.516424
-0.302456;0.407526;136.363036;141.500000;0.761430;464.518519;0.495876;49.666238;170.416459;3649.000000;0.290942
-0.225676;0.454441;-225.890546;156.687500;0.754656;311.775000;0.577481;48.987014;139.903424;3525.000000;0.282656
0.090486;0.451633;-289.105975;102.312500;0.752091;275.794118;0.571520;44.235869;137.768397;3564.000000;0.380079
-1.066210;0.364350;306.718548;231.437500;0.778806;2983.000000;0.254370;0.000000;209.570351;0.000000;0.000000
-0.109323;0.438473;-186.201083;174.937500;0.772904;274.812500;0.709640;42.985554;151.999063;2147.000000;0.244144
-0.580299;0.427627;-61.497460;144.125000;0.773762;312.175000;0.600909;49.796699;161.807343;2510.000000;0.201009
-0.304433;0.440090;-73.526434;164.937500;0.766008;280.617647;0.589536;47.130011;153.534861;7136.000000;0.373965
-0.294531;0.441653;-122.479250;214.000000;0.766638;304.878049;0.701520;45.094078;149.070715;3109.000000;0.248720
-0.142730;0.456788;-243.246208;161.187500;0.759089;275.982143;0.574282;44.626237;137.775739;4138.000000;0.267745
-0.406455;0.421815;-145.172469;168.187500;0.762099;270.571429;0.525563;45.840170;160.608914;2318.000000;0.305966
-0.008424;0.455871;-322.246839;188.562500;0.754096;306.423077;0.587367;46.666640;136.504279;5194.000000;0.325970
-0.561861;0.423710;-244.214545;155.125000;0.775788;242.647059;0.523394;44.606266;156.387771;1222.000000;0.296242
-0.018904;0.457991;-546.024138;61.375000;0.760050;314.923077;0.679277;32.750480;134.325249;2254.000000;0.550562
0.205765;0.483875;-518.520531;150.562500;0.753819;267.235294;0.658368;36.750124;122.656392;2186.000000;0.481180
-0.355835;0.419096;24.131409;125.562500;0.773107;493.733333;0.567877;30.690021;166.687961;2233.000000;0.301512
-0.483046;0.452046;-363.124766;95.312500;0.766868;263.368421;0.686086;33.570079;143.682472;2511.000000;0.501799
-0.041427;0.449892;-339.825063;177.812500;0.757942;340.142857;0.632407;47.413011;140.190787;3572.000000;0.375052
-0.117036;0.436690;-263.560517;203.187500;0.761845;355.977778;0.576232;43.029856;148.289646;4445.000000;0.277483
0.024210;0.440944;-214.678687;156.375000;0.760532;287.696970;0.551183;45.649060;149.143495;2337.000000;0.246155
-0.262244;0.449769;-379.340602;171.250000;0.757466;280.000000;0.631200;30.746456;137.369755;1871.000000;0.393067
-0.288369;0.423848;-179.646900;122.875000;0.764705;351.133333;0.628616;48.600051;158.802411;1472.000000;0.279476
-0.718021;0.374814;209.862946;144.312500;0.777527;728.000000;0.558444;18.990215;204.600187;0.000000;0.000000
-0.248420;0.444329;-183.526926;135.375000;0.771669;397.424242;0.605358;39.592804;149.966270;2923.000000;0.222875
-0.186156;0.446049;-408.877879;102.312500;0.751472;377.888889;0.535872;44.020955;139.781645;1338.000000;0.196707
-0.281156;0.448087;-328.260972;71.437500;0.755665;251.703704;0.563423;49.089803;136.140102;2111.000000;0.310624
-0.094759;0.455673;-476.737906;147.750000;0.752973;294.631579;0.510928;41.498978;129.694123;1844.000000;0.329403
-0.317867;0.446996;-397.698047;151.250000;0.764195;387.352941;0.679058;44.161828;143.440723;612.000000;0.092938
-1.425016;0.377957;102.089287;217.812500;0.819230;2167.000000;0.704148;30.596327;211.316021;439.000000;0.028941
-1.428809;0.379511;147.627882;216.500000;0.794567;1481.000000;0.683631;15.307185;200.589869;224.000000;0.050416
-1.718118;0.389051;66.715922;218.687500;0.826443;2328.125000;0.857593;20.615681;203.366562;217.000000;0.011651
-1.742830;0.380674;110.387060;211.812500;0.828813;6109.500000;0.769949;8.081670;211.090867;193.000000;0.007898
-0.538715;0.370525;290.227856;196.937500;0.792707;2343.000000;0.676324;0.000000;211.009215;0.000000;0.000000
-1.254433;0.382526;158.753864;162.062500;0.820561;2662.571429;0.683305;45.784278;206.711665;312.000000;0.016740
-1.504123;0.391680;45.520451;215.750000;0.835111;2927.333333;0.973596;6.736986;203.030004;0.000000;0.000000
-0.293101;0.384390;168.518260;204.125000;0.797560;1874.500000;0.858089;2.456139;201.958957;0.000000;0.000000
-1.168987;0.381921;179.652374;215.125000;0.813202;2305.714286;0.565172;27.870767;205.315389;0.000000;0.000000
0.251379;0.490591;-713.747909;247.187500;0.763859;314.714286;0.855384;34.328400;120.999914;1239.000000;0.187472
0.254286;0.516460;-639.620756;123.437500;0.765714;368.968750;0.729486;41.685557;119.888933;2521.000000;0.213517
0.503100;0.530967;-764.186348;114.125000;0.764470;416.428571;0.685426;39.340662;112.587477;0.000000;0.000000
-0.103555;0.543043;-709.348233;116.875000;0.764231;261.800000;0.495745;40.093087;107.455035;1052.000000;0.803667
0.229075;0.519125;-704.520532;143.500000;0.765159;239.733333;0.674334;27.942129;115.169196;1608.000000;0.447164
0.461806;0.477603;-489.195431;185.000000;0.773124;328.450000;0.599117;45.497270;136.993451;1817.000000;0.276602
0.060373;0.508288;-329.383082;102.437500;0.768530;432.176471;0.666071;36.308794;125.271644;1585.000000;0.215734
0.394141;0.548835;-809.255631;248.937500;0.755787;351.937500;0.689737;47.517032;103.642994;2578.000000;0.228911
0.008204;0.500671;-439.061334;106.187500;0.765234;352.586207;0.654318;42.681997;125.365640;3117.000000;0.304841
-0.027890;0.458817;-426.551455;213.250000;0.780194;301.600000;0.835293;16.549601;140.140575;824.000000;0.182140
-0.054212;0.514551;-672.646189;131.687500;0.772409;325.666667;0.688491;44.173934;118.976578;2020.000000;0.413511
0.511446;0.478940;-562.377866;245.437500;0.763713;310.000000;0.648591;47.402957;127.613174;4192.000000;0.270452
0.032326;0.504927;-504.657051;163.250000;0.768034;379.368421;0.703891;31.084696;125.979539;5163.000000;0.358144
-0.085050;0.481002;-465.186112;130.562500;0.770981;385.642857;0.635556;35.456091;136.452155;2291.000000;0.424338
0.144650;0.492784;-568.221965;124.687500;0.765392;332.150000;0.660520;30.432934;128.620106;2650.000000;0.398916
-0.429934;0.486584;-437.992149;120.312500;0.772508;320.444444;0.705595;48.315588;131.078870;0.000000;0.000000
-0.103693;0.504987;-517.383806;138.375000;0.769363;387.733333;0.560526;47.449741;130.270333;4494.000000;0.772696
-1.793532;0.376852;84.028209;236.937500;0.796534;1461.833333;0.577928;48.487059;205.130461;271.000000;0.030897
-1.067305;0.381762;75.828275;196.937500;0.813945;2337.133333;0.610314;27.654062;209.454380;667.000000;0.019026
-0.778079;0.399216;-17.493422;199.812500;0.818623;748.807692;0.740842;24.479920;200.476691;309.000000;0.015871
-1.015871;0.385439;121.079455;207.875000;0.798553;852.558824;0.663779;34.111641;199.467358;1666.000000;0.057474
-0.582099;0.402543;88.794860;176.312500;0.801910;377.555556;0.724957;39.108569;193.191793;222.000000;0.065333
-1.269059;0.380527;67.775252;218.187500;0.816041;2523.333333;0.657467;15.617042;212.589242;0.000000;0.000000
-0.855324;0.381921;23.987141;208.312500;0.809187;1249.000000;0.703022;29.743937;203.666407;1281.000000;0.113958
-0.672692;0.388705;16.968250;221.375000;0.797054;638.714286;0.607810;40.371681;193.676036;2821.000000;0.105159
-0.271884;0.378961;202.529222;188.687500;0.803795;4007.000000;0.342786;0.000000;213.284224;0.000000;0.000000
-1.602494;0.376763;159.830850;214.250000;0.800489;6183.500000;0.418538;27.573516;210.936705;218.000000;0.017628
-0.817665;0.399449;-42.591106;176.625000;0.808120;492.000000;0.694939;43.094162;193.249572;141.000000;0.023882
-0.951928;0.391713;36.446197;216.375000;0.811315;1043.625000;0.620410;33.725650;202.709769;766.000000;0.045874
-0.399144;0.387103;80.214682;139.562500;0.790315;610.000000;0.644198;17.525196;196.948301;599.000000;0.163661
-0.728542;0.434875;-278.527672;135.250000;0.789832;370.500000;0.773654;8.347548;165.540086;0.000000;0.000000
-1.125937;0.385919;136.701983;219.625000;0.812839;1271.363636;0.670102;31.492752;204.607546;1293.000000;0.046228
-0.475976;0.398628;86.721140;213.187500;0.795423;571.125000;0.691039;35.864590;190.900231;472.000000;0.051652
-1.069736;0.380831;127.632549;199.375000;0.793304;873.750000;0.649073;34.225040;199.246941;1284.000000;0.073476
-0.611641;0.369172;273.516613;175.062500;0.790291;1902.000000;0.940380;0.000000;217.331310;0.000000;0.000000
-0.407398;0.416650;-240.246934;243.625000;0.777823;214.857143;0.658910;47.681919;155.047425;388.000000;0.257979
-0.617567;0.400508;3.781492;188.750000;0.806710;427.705882;0.698776;30.020169;184.040787;509.000000;0.070004
-0.844128;0.425466;-248.348075;136.812500;0.790624;197.400000;0.711977;40.020575;161.452612;463.000000;0.156366
-0.422567;0.415272;-93.927069;172.875000;0.791303;279.052632;0.784361;36.853867;163.773428;1262.000000;0.238023
-0.943025;0.381248;134.833000;194.875000;0.798957;8962.000000;0.950961;0.000000;208.296684;0.000000;0.000000
-1.498100;0.365222;237.305264;199.187500;0.800355;1956.666667;0.720368;25.356569;213.700418;203.000000;0.017291
-0.513753;0.411660;-114.373442;202.625000;0.803878;515.722222;0.869238;11.854457;177.854646;1628.000000;0.175374
-0.378832;0.408678;-58.112584;159.125000;0.783134;245.200000;0.700333;42.923759;171.809827;1568.000000;0.182708
-0.553629;0.403825;-91.338123;245.437500;0.800855;492.625000;0.839787;16.770811;177.866733;0.000000;0.000000
-0.990969;0.358629;227.194857;220.687500;0.807096;1492.000000;0.774739;0.000000;226.259842;0.000000;0.000000
-0.962470;0.388812;39.580061;210.375000;0.798172;747.545455;0.810855;23.393121;194.120107;2523.000000;0.102274
-1.055681;0.363836;208.879231;220.062500;0.809982;3135.000000;0.760614;0.000000;223.066932;0.000000;0.000000
-0.973427;0.365059;126.265556;192.625000;0.813769;4110.000000;0.949571;0.000000;224.447353;0.000000;0.000000
-1.113699;0.399537;-29.745155;196.937500;0.792250;330.066667;0.710660;35.936166;185.415828;277.000000;0.055948
-1.242720;0.366214;124.248426;142.062500;0.803738;1077.142857;0.712448;41.046748;212.339311;0.000000;0.000000
-1.376745;0.385976;195.951845;175.812500;0.801646;1836.000000;0.790187;23.159113;198.381399;0.000000;0.000000
-0.937445;0.390256;261.023740;205.500000;0.805788;954.916667;0.836333;13.821134;199.066747;297.000000;0.025918
-1.121649;0.357425;175.016035;212.250000;0.803257;4185.000000;0.910860;0.000000;226.253492;0.000000;0.000000
-0.247012;0.487953;-820.088641;39.562500;0.758018;268.750000;0.409213;42.990399;116.456507;373.000000;0.346977
-0.719274;0.445096;-663.975164;176.750000;0.757410;208.600000;0.365816;34.154303;136.738469;796.000000;0.763183
-0.566920;0.424620;-467.277447;195.062500;0.799227;206.461538;0.697462;35.298231;155.017724;940.000000;0.350224
0.394649;0.472047;-1121.148117;110.687500;0.756657;291.500000;0.631735;2.287324;113.405567;547.000000;0.938250
-0.300638;0.431552;-447.119557;128.375000;0.771807;221.888889;0.634568;32.264419;150.514134;607.000000;0.303956
0.282291;0.493566;-886.009742;161.437500;0.762121;222.000000;0.849636;9.491754;111.575227;515.000000;0.386637
0.105308;0.459832;-658.162697;121.687500;0.774077;578.000000;0.229140;0.000000;134.031119;578.000000;1.000000
-0.291478;0.415980;-276.543939;240.812500;0.774159;276.136364;0.586955;39.749903;161.343591;2062.000000;0.339424
0.235150;0.469363;-727.057956;102.000000;0.773171;367.000000;0.533995;35.633847;131.090587;312.000000;0.283379
-0.260798;0.438327;-579.445779;162.687500;0.761239;286.000000;0.756966;18.644549;134.524219;601.000000;0.420280
-0.385711;0.420947;-358.030029;113.500000;0.764116;272.187500;0.511882;49.710136;155.638517;1580.000000;0.362801
-0.097608;0.473674;-819.681367;139.875000;0.767492;389.666667;0.637566;16.665724;124.919878;580.000000;0.496151
-0.700966;0.391806;-278.015117;153.250000;0.785940;342.000000;0.586397;50.871921;178.195736;1058.000000;0.257797
-2.642204;0.338021;303.994087;252.062500;0.820887;551.000000;0.819358;0.000000;250.279081;0.000000;0.000000
0.243081;0.460017;-992.158830;115.187500;0.763209;178.500000;0.660871;39.260113;114.496695;303.000000;0.282913
-2.348734;0.363622;24.179104;236.812500;0.829766;3193.400000;0.510797;25.855315;217.421133;391.000000;0.024488
-1.482396;0.349487;194.180153;248.625000;0.811152;1640.000000;0.694210;0.000000;237.428146;0.000000;0.000000
-1.700995;0.352206;90.439210;224.125000;0.824671;9896.000000;0.686938;0.000000;232.485829;0.000000;0.000000
-1.927228;0.361112;-13.633475;238.062500;0.809915;2229.750000;0.341706;34.517028;215.076370;866.000000;0.097096
-2.422062;0.363076;-8.752111;202.750000;0.815356;1146.800000;0.506058;33.775553;214.403176;187.000000;0.032612
-2.371068;0.356291;63.683395;241.875000;0.816680;17813.000000;0.771708;0.000000;224.586211;0.000000;0.000000
-2.225588;0.361528;35.504309;192.437500;0.821653;4514.857143;0.692620;24.535126;217.126258;177.000000;0.005601
-2.434417;0.356239;52.259934;239.187500;0.830544;2924.500000;0.935446;10.216630;229.034540;0.000000;0.000000
-2.184424;0.366713;-12.774112;231.750000;0.820537;580.750000;0.673544;38.531650;203.616728;141.000000;0.060697
-1.780487;0.358723;21.736892;195.687500;0.832789;5969.500000;0.736934;22.597722;221.535194;0.000000;0.000000
-1.519479;0.351260;125.834890;234.687500;0.820296;5640.000000;0.810634;0.000000;230.781345;0.000000;0.000000
-1.915039;0.347621;100.807315;195.562500;0.810165;3097.500000;0.835606;34.352453;233.376123;0.000000;0.000000
-3.217203;0.353806;94.752493;200.250000;0.814233;11888.000000;0.774096;0.000000;225.149480;0.000000;0.000000
-2.559032;0.354472;146.877214;222.812500;0.814066;13825.000000;0.851467;0.000000;228.517818;0.000000;0.000000
-3.710839;0.354158;146.785388;231.437500;0.810387;7000.000000;0.824197;0.000000;227.941710;0.000000;0.000000
-1.593476;0.374009;-62.807069;226.375000;0.833010;2103.333333;0.912862;3.669072;203.935140;0.000000;0.000000
-2.410736;0.363616;55.941890;237.250000;0.829531;1897.142857;0.794384;9.415281;217.283110;149.000000;0.011220
-1.519807;0.360550;33.791067;237.312500;0.827457;1448.166667;0.643693;21.783444;222.745725;0.000000;0.000000
-1.882585;0.365410;0.005537;233.750000;0.825369;3745.666667;0.629505;39.076020;214.534513;0.000000;0.000000
-0.633519;0.389511;-364.397205;236.687500;0.794082;185.000000;0.740320;22.387103;163.807657;157.000000;0.065281
-2.057305;0.370729;18.468577;220.062500;0.819255;984.230769;0.803741;13.964885;210.960414;173.000000;0.013521
-1.031767;0.382748;-129.959031;138.812500;0.791196;390.000000;0.584189;30.992115;178.995031;400.000000;0.102564
-2.115178;0.372281;55.349973;217.437500;0.841388;3193.750000;0.699481;45.990794;215.659835;321.000000;0.012564
-1.808087;0.366247;100.849718;181.562500;0.828596;10200.000000;0.886378;0.000000;219.864127;0.000000;0.000000
-1.961461;0.365771;1.940604;173.750000;0.826078;2362.700000;0.612525;41.007454;216.800716;499.000000;0.021120
-2.028906;0.369585;30.179760;252.687500;0.830145;1152.625000;0.761603;27.849942;215.487981;0.000000;0.000000
-1.442418;0.357822;173.998685;235.125000;0.826526;3337.000000;0.987566;0.000000;233.241637;0.000000;0.000000
-1.282628;0.354828;125.992007;202.750000;0.826891;3896.000000;0.848799;0.000000;232.664451;0.000000;0.000000
0.076775;0.457247;-789.654040;100.812500;0.786261;303.000000;0.844934;4.782028;130.399237;493.000000;0.542354
-0.987629;0.367955;43.819080;233.750000;0.847353;8387.000000;0.900672;0.000000;225.736540;0.000000;0.000000
-1.880878;0.364232;27.090211;206.812500;0.812968;1477.444444;0.703553;18.123979;213.738935;730.000000;0.054900
-2.706816;0.360597;78.554407;232.687500;0.825797;17139.000000;0.840690;0.000000;225.411780;0.000000;0.000000
-1.524787;0.355060;61.829348;232.062500;0.821438;8565.000000;0.275636;0.000000;230.024900;0.000000;0.000000
-2.521995;0.360969;26.003524;236.500000;0.818041;3173.000000;0.629437;25.257672;221.162681;343.000000;0.013512
-2.107174;0.361848;88.024938;220.500000;0.820023;2696.000000;0.689046;14.415869;225.024076;185.000000;0.022873
-1.164460;0.394685;-67.624932;131.125000;0.823893;596.611111;0.718676;42.182392;195.415950;1559.000000;0.145172
-1.054720;0.362220;342.920544;210.625000;0.805249;1105.000000;0.705875;0.000000;221.583664;0.000000;0.000000
-1.659725;0.368162;98.524111;74.312500;0.819532;1010.428571;0.614758;19.918211;211.133202;196.000000;0.027711
-1.590191;0.361063;56.064729;239.312500;0.818923;1479.300000;0.782433;50.873190;219.467453;0.000000;0.000000
-2.150300;0.368046;102.236013;219.187500;0.808027;2290.750000;0.476423;42.919303;211.380745;0.000000;0.000000
-2.288594;0.357882;143.286436;202.187500;0.813428;5961.000000;0.852250;0.000000;223.869179;0.000000;0.000000
-1.111084;0.354747;117.250879;249.312500;0.824017;7418.000000;0.882546;0.000000;232.797701;0.000000;0.000000
-1.621902;0.366847;52.269413;239.875000;0.831879;2432.200000;0.814345;45.470372;223.933073;258.000000;0.021215
-0.655481;0.377517;111.192473;224.062500;0.827773;942.666667;0.698980;22.293512;212.158464;0.000000;0.000000
-1.729543;0.383147;-42.888637;231.000000;0.821772;1175.000000;0.642873;31.659768;200.503325;383.000000;0.036217
-1.906982;0.370576;-33.676511;228.625000;0.812032;1497.000000;0.602347;12.448245;212.368091;661.000000;0.110387
-0.184472;0.530703;-880.843498;85.375000;0.779654;605.333333;0.474419;27.912359;115.051312;0.000000;0.000000
0.288696;0.534522;-737.460329;109.937500;0.766791;262.857143;0.540939;44.929127;108.220238;1267.000000;0.344293
0.185383;0.508111;-555.970708;160.500000;0.771062;263.000000;0.648381;32.109732;123.109237;3682.000000;0.411765
-0.515275;0.454337;-166.290032;141.312500;0.798871;228.076923;0.654829;43.414013;152.694461;1472.000000;0.496459
-1.150797;0.374229;388.233320;140.937500;0.803131;1042.000000;0.948945;0.000000;213.628011;0.000000;0.000000
0.295724;0.492959;-309.038805;251.062500;0.767894;237.240000;0.508354;44.735444;121.006875;3083.000000;0.519811
0.186004;0.516007;-354.338327;95.812500;0.764902;265.966667;0.622795;50.385078;117.355481;3439.000000;0.431006
0.012542;0.429318;361.903244;145.437500;0.794770;280.166667;0.591575;36.633673;179.405849;0.000000;0.000000
0.342073;0.490962;-608.095974;120.687500;0.790040;420.750000;0.656075;48.584506;127.627350;1076.000000;0.319667
0.418721;0.515271;-554.896953;144.375000;0.766511;283.086957;0.565967;46.394188;112.951149;2913.000000;0.447397
-0.119138;0.443112;84.704149;134.500000;0.787329;239.285714;0.666381;42.405377;158.058592;1451.000000;0.288756
0.513480;0.546981;-571.710893;126.687500;0.762227;225.730769;0.571219;38.759686;103.588515;2818.000000;0.480150
-0.976360;0.381823;344.326656;155.312500;0.826787;1536.333333;0.583164;42.733598;205.284759;0.000000;0.000000
-0.220873;0.411090;316.980443;249.750000;0.803716;263.153846;0.625546;43.918850;184.832250;173.000000;0.050570
-0.251416;0.430524;-62.730796;59.500000;0.789479;197.555556;0.715358;30.532839;153.927117;308.000000;0.173228
-1.121677;0.383529;136.078579;219.562500;0.845786;1246.000000;0.602538;43.206585;202.148999;0.000000;0.000000
-0.602799;0.390780;155.215749;184.750000;0.844180;574.888889;0.612769;32.575855;200.437042;409.000000;0.079049
-0.274583;0.441844;-328.492053;223.062500;0.810691;379.666667;0.854435;25.858596;156.735114;317.000000;0.139157
-1.264428;0.384877;25.435329;231.437500;0.852083;1946.375000;0.746447;23.680261;213.521045;0.000000;0.000000
-1.043291;0.391244;51.195122;205.250000;0.836600;854.368421;0.744666;29.472892;207.645551;0.000000;0.000000
-0.628342;0.395102;-137.725356;200.875000;0.825427;353.609756;0.707540;28.023286;192.403916;1303.000000;0.089874
-1.174428;0.385690;136.588055;190.750000;0.828918;905.333333;0.740828;41.339185;203.510629;289.000000;0.021281
-0.761870;0.394477;-89.740398;229.875000;0.837745;488.000000;0.781841;33.829670;196.268370;160.000000;0.021858
-0.660256;0.399135;85.112513;227.812500;0.824145;455.333333;0.697835;34.149708;195.527675;0.000000;0.000000
-1.022136;0.375662;221.704867;226.062500;0.836289;6166.000000;0.830105;12.580455;218.773067;0.000000;0.000000
-1.195195;0.386220;22.053031;215.937500;0.850194;2206.250000;0.592040;45.718187;208.609938;0.000000;0.000000
-1.477957;0.393521;38.924262;214.687500;0.840209;650.833333;0.720056;38.757539;200.928155;0.000000;0.000000
-0.806091;0.389759;-34.233435;238.812500;0.830224;856.545455;0.791768;17.702443;202.539749;370.000000;0.019635
-0.932485;0.391935;-58.120498;216.937500;0.842599;804.727273;0.700462;39.938083;201.742617;415.000000;0.046882
-1.416002;0.357689;162.034507;182.062500;0.840806;1486.000000;0.772188;0.000000;235.551990;0.000000;0.000000
-0.649799;0.396684;41.242267;191.250000;0.819584;365.969697;0.632367;40.396894;193.882367;906.000000;0.075019
-0.847026;0.391712;-10.917242;154.375000;0.831406;678.513514;0.627939;48.500611;202.386854;515.000000;0.020514
-0.414689;0.414680;-87.814818;190.062500;0.812154;380.761905;0.771704;22.311837;179.924215;1767.000000;0.220985
-0.799846;0.385744;137.517980;221.687500;0.834216;1392.285714;0.617198;25.452766;210.636350;0.000000;0.000000
-1.211066;0.377195;167.572660;224.187500;0.818914;1065.571429;0.671866;39.809574;210.509038;373.000000;0.050007
-1.279979;0.415076;-219.668845;115.562500;0.827231;231.666667;0.632896;48.410515;175.452032;0.000000;0.000000
-1.877565;0.352109;219.871241;234.312500;0.823477;3265.000000;0.517295;0.000000;236.972639;0.000000;0.000000
-1.176052;0.380292;61.216127;226.250000;0.834564;2154.000000;0.806157;28.674446;215.100209;278.000000;0.021510
-1.454651;0.375289;67.463227;180.625000;0.831502;1960.600000;0.753952;31.807049;219.595226;0.000000;0.000000
-0.175190;0.459190;-720.946465;125.625000;0.773974;203.400000;0.724519;36.837034;132.058834;0.000000;0.000000
-1.255935;0.351753;217.030721;234.687500;0.799950;1372.000000;0.693982;0.000000;236.942589;0.000000;0.000000
-0.669279;0.392466;-19.740057;203.062500;0.828476;914.675000;0.698583;40.188762;205.667019;2280.000000;0.062317
-0.992052;0.404007;-122.057276;181.062500;0.813683;339.057143;0.684166;47.512135;187.679605;1357.000000;0.114351
-1.045436;0.377590;82.648872;181.375000;0.826461;3399.000000;0.635690;19.561765;216.518557;0.000000;0.000000
-0.464491;0.428506;-261.956080;216.000000;0.819072;314.315789;0.693682;46.879936;165.932795;1651.000000;0.276457
-0.573107;0.390254;9.960265;216.250000;0.824959;501.333333;0.641521;35.691594;201.354890;768.000000;0.063830
-0.682311;0.393069;-81.398852;201.250000;0.828085;574.625000;0.679622;27.609053;194.031955;1039.000000;0.113008
-1.024666;0.373292;78.264285;219.687500;0.823120;731.875000;0.758312;20.948886;211.500513;176.000000;0.030060
-0.671739;0.423495;-423.562756;247.000000;0.818749;264.909091;0.711187;39.016076;162.790738;622.000000;0.213452
-1.155708;0.384785;-2.894119;216.750000;0.832356;1030.500000;0.789064;21.298895;202.105144;0.000000;0.000000
-0.984449;0.403145;-144.320796;239.125000;0.831256;484.500000;0.798011;34.766788;183.840074;0.000000;0.000000
-0.849408;0.392157;-121.604527;94.437500;0.804549;488.833333;0.590542;39.744854;187.406699;455.000000;0.077566